…
``` r
# Filter rows with any missing medal counts (gold, silver, bronze)
missing_medals <- country_results_df %>%
  filter(if_any(c(awards_gold, awards_silver, awards_bronze), is.na))

# Filter rows with missing honorable mention awards
missing_honorable_mentions <- country_results_df %>%
  filter(is.na(awards_honorable_mentions))
missing_honorable_mentions
```

    ## # A tibble: 515 × 14
    ##     year country         team_size_all    p1    p2    p3    p4    p5    p6 p7   
    ##    <dbl> <chr>                   <dbl> <dbl> <dbl> <dbl> <dbl> <dbl> <dbl> <lgl>
    ##  1  2010 Democratic Peo…             6    NA    NA    NA    NA    NA    NA NA   
    ##  2  1991 Democratic Peo…             6    NA    NA    NA    NA    NA    NA NA   
    ##  3  1987 Romania                     6    42    42    40    42    42    42 NA   
    ##  4  1987 Germany                     6    42    42    42    42    42    38 NA   
    ##  5  1987 Union of Sovie…             6    42    42    28    42    42    39 NA   
    ##  6  1987 German Democra…             6    42    42    42    38    42    25 NA   
    ##  7  1987 United States …             6    42    42    35    36    36    29 NA   
    ##  8  1987 Hungary                     6    42    42    35    40    38    21 NA   
    ##  9  1987 Bulgaria                    6    38    42    28    36    41    25 NA   
    ## 10  1987 People's Repub…             6    31    42    27    38    40    22 NA   
    ## # ℹ 505 more rows
    ## # ℹ 4 more variables: awards_gold <dbl>, awards_silver <dbl>,
    ## #   awards_bronze <dbl>, awards_honorable_mentions <dbl>
…
``` r
individual_results_df %>%
  distinct(country)
```

    ## # A tibble: 151 × 1
    ##    country                   
    ##    <chr>                     
    ##  1 People's Republic of China
    ##  2 C21                       
    ##  3 United States of America  
    ##  4 Japan                     
    ##  5 Hungary                   
    ##  6 India                     
    ##  7 Republic of Korea         
    ##  8 United Kingdom            
    ##  9 Belarus                   
    ## 10 Lithuania                 
    ## # ℹ 141 more rows
…
    ## # A tibble: 1 × 1
    ##   mean_p1_all
    ##         <dbl>
    ## 1        4.65

``` r
individual_results_df %>%
  group_by(country) %>%
  summarize(mean_p1 = mean(p1)) %>%
  arrange(desc(mean_p1))
```

    ## # A tibble: 151 × 2
    ##    country mean_p1
    ##    <chr>     <dbl>
    ##  1 C01           7
    ##  2 C02           7
    ##  3 C03           7
    ##  4 C04           7
    ##  5 C05           7
    ##  6 C06           7
    ##  7 C11           7
    ##  8 C12           7
    ##  9 C13           7
    ## 10 C14           7
    ## # ℹ 141 more rows
…
    ## # A tibble: 1 × 1
    ##   mean_p2_all
    ##         <dbl>
    ## 1        2.45

``` r
individual_results_df %>%
  group_by(country) %>%
  summarize(mean_p2 = mean(p2)) %>%
  arrange(desc(mean_p2))
```

    ## # A tibble: 151 × 2
    ##    country mean_p2
    ##    <chr>     <dbl>
    ##  1 C01           7
    ##  2 C02           7
    ##  3 C03           7
    ##  4 C04           7
    ##  5 C05           7
    ##  6 C06           7
    ##  7 C11           7
    ##  8 C12           7
    ##  9 C13           7
    ## 10 C14           7
    ## # ℹ 141 more rows
…
    ## # A tibble: 1 × 1
    ##   mean_p3_all
    ##         <dbl>
    ## 1       0.839

``` r
individual_results_df %>%
  group_by(country) %>%
  summarize(mean_p3 = mean(p3)) %>%
  arrange(desc(mean_p3))
```

    ## # A tibble: 151 × 2
    ##    country mean_p3
    ##    <chr>     <dbl>
    ##  1 C01           7
    ##  2 C05           7
    ##  3 C06           7
    ##  4 C11           7
    ##  5 C12           7
    ##  6 C13           7
    ##  7 C14           7
    ##  8 C15           7
    ##  9 C16           7
    ## 10 C21           6
    ## # ℹ 141 more rows
…
    ## # A tibble: 1 × 1
    ##   mean_p4_all
    ##         <dbl>
    ## 1        4.25

``` r
individual_results_df %>%
  group_by(country) %>%
  summarize(mean_p4 = mean(p4)) %>%
  arrange(desc(mean_p4))
```

    ## # A tibble: 151 × 2
    ##    country mean_p4
    ##    <chr>     <dbl>
    ##  1 C01           7
    ##  2 C02           7
    ##  3 C03           7
    ##  4 C04           7
    ##  5 C05           7
    ##  6 C06           7
    ##  7 C11           7
    ##  8 C12           7
    ##  9 C13           7
    ## 10 C14           7
    ## # ℹ 141 more rows
…
    ## # A tibble: 1 × 1
    ##   mean_p5_all
    ##         <dbl>
    ## 1        2.21

``` r
individual_results_df %>%
  group_by(country) %>%
  summarize(mean_p5 = mean(p5)) %>%
  arrange(desc(mean_p5))
```

    ## # A tibble: 151 × 2
    ##    country mean_p5
    ##    <chr>     <dbl>
    ##  1 C01           7
    ##  2 C02           7
    ##  3 C04           7
    ##  4 C05           7
    ##  5 C06           7
    ##  6 C11           7
    ##  7 C12           7
    ##  8 C13           7
    ##  9 C14           7
    ## 10 C15           7
    ## # ℹ 141 more rows
…
    ## # A tibble: 1 × 1
    ##   mean_p6_all
    ##         <dbl>
    ## 1       0.582

``` r
individual_results_df %>%
  group_by(country) %>%
  summarize(mean_p6 = mean(p6)) %>%
  arrange(desc(mean_p6))
```

    ## # A tibble: 151 × 2
    ##    country                    mean_p6
    ##    <chr>                        <dbl>
    ##  1 C05                           7   
    ##  2 C21                           7   
    ##  3 People's Republic of China    4.13
    ##  4 C01                           4   
    ##  5 C06                           4   
    ##  6 United States of America      3.17
    ##  7 Russian Federation            2.65
    ##  8 Republic of Korea             2.51
    ##  9 C11                           2   
    ## 10 C16                           2   
    ## # ℹ 141 more rows

#### `awards_gold`

China has earned the most gold medals over the past 30 years, with a
total of 150. The USA follows with 114 gold medals, and Russia ranks
third with 97.

``` r
country_results_df %>%
  group_by(country) %>%
  summarize(total_gold = sum(awards_gold)) %>%
  arrange(desc(total_gold))
```

    ## # A tibble: 133 × 2
    ##    country                    total_gold
    ##    <chr>                           <dbl>
    ##  1 People's Republic of China        150
    ##  2 United States of America          114
    ##  3 Russian Federation                 97
    ##  4 Republic of Korea                  94
    ##  5 Vietnam                            57
    ##  6 Romania                            50
    ##  7 Japan                              46
    ##  8 Islamic Republic of Iran           45
    ##  9 Taiwan                             45
    ## 10 Ukraine                            42
    ## # ℹ 123 more rows

#### `awards_silver`

Iran has earned the most silver medals over the past 30 years, with 96,
followed by Taiwan with 94 and Japan with 86.

``` r
country_results_df %>%
  group_by(country) %>%
  summarize(total_silver = sum(awards_silver)) %>%
  arrange(desc(total_silver))
```

    ## # A tibble: 133 × 2
    ##    country                  total_silver
    ##    <chr>                           <dbl>
    ##  1 Islamic Republic of Iran           96
    ##  2 Taiwan                             94
    ##  3 Japan                              86
    ##  4 Romania                            84
    ##  5 Bulgaria                           80
    ##  6 Hungary                            77
    ##  7 Republic of Korea                  75
    ##  8 Vietnam                            75
    ##  9 Germany                            72
    ## 10 Türkiye                            72
    ## # ℹ 123 more rows

#### `awards_bronze`

Slovakia, Croatia, and France have earned the most bronze medals, with
86, 84, and 82 medals respectively.

``` r
country_results_df %>%
  group_by(country) %>%
  summarize(total_bronze = sum(awards_bronze)) %>%
  arrange(desc(total_bronze))
```

    ## # A tibble: 133 × 2
    ##    country        total_bronze
    ##    <chr>                 <dbl>
    ##  1 Slovakia                 86
    ##  2 Croatia                  84
    ##  3 France                   82
    ##  4 Belarus                  79
    ##  5 Georgia                  76
    ##  6 Israel                   76
    ##  7 Czech Republic           75
    ##  8 Mexico                   75
    ##  9 Hong Kong                74
    ## 10 Kazakhstan               74
    ## # ℹ 123 more rows
…
An Honorable Mention is awarded to participants who do not win a medal
but score 7 points on at least one
problem<sup>[\[2\]](https://en.wikipedia.org/wiki/International_Mathematical_Olympiad)</sup>.
South Africa, Slovenia, and Latvia have earned the most honorable
mentions, with 77, 72, and 71 times respectively.

``` r
country_results_df %>%
  group_by(country) %>%
  summarize(total_honorable_mentions = sum(awards_honorable_mentions)) %>%
  arrange(desc(total_honorable_mentions))
```

    ## # A tibble: 133 × 2
    ##    country      total_honorable_mentions
    ##    <chr>                           <dbl>
    ##  1 South Africa                       77
    ##  2 Slovenia                           72
    ##  3 Latvia                             71
    ##  4 Estonia                            68
    ##  5 Azerbaijan                         67
    ##  6 Morocco                            67
    ##  7 Sri Lanka                          67
    ##  8 Finland                            65
    ##  9 Lithuania                          65
    ## 10 Macau                              64
    ## # ℹ 123 more rows
…
